^D:\PROGBASE3\SRC\MYGAME\MYGAME\DEBUG\MYGAME.OBJ|D:\PROGBASE3\SRC\MYGAME\MYGAME\DEBUG\STDAFX.OBJ
D:\PROGBASE3\SRC\MYGAME\DEBUG\MYGAME.ILK
D:\PROGBASE3\SRC\MYGAME\DEBUG\MYGAME.EXE
D:\PROGBASE3\SRC\MYGAME\DEBUG\MYGAME.PDB
